{"components":[{"id":"pkg:maven/org.wildfly.swarm/spring@2018.5.0","type":"COMPONENT_VERSION","namespace":"org.wildfly.swarm","name":"spring","version":"2018.5.0","publishedEpochMillis":1525247725000,"licenses":[],"description":"RESTful services with Spring WebMVC","categories":["Application and Server Management"],"latestVersionInfo":{"version":null,"timestampUnixWithMS":null,"licenses":null},"contributors":null,"nsPopularityAppCount":3,"nsPopularityOrgCount":2,"dependentOnCount":0,"dependencyOfCount":1,"childCount":0,"classifiers":[],"packaging":"jar","ossIndexInfo":{"url":"https://ossindex.sonatype.org/component/pkg:maven/org.wildfly.swarm/spring@2018.5.0","vulnerabilityCount":null},"qualityScore":null,"bomDrInfo":{"url":"https://bomdoctor.sonatype.com/#/sbom/pkg:maven/org.wildfly.swarm/spring@2018.5.0"},"cherryBomUrl":null},{"id":"pkg:maven/org.wildfly.swarm/spring@2018.4.1","type":"COMPONENT_VERSION","namespace":"org.wildfly.swarm","name":"spring","version":"2018.4.1","publishedEpochMillis":1523022726000,"licenses":[],"description":"RESTful services with Spring WebMVC","categories":["Application and Server Management"],"latestVersionInfo":{"version":null,"timestampUnixWithMS":null,"licenses":null},"contributors":null,"nsPopularityAppCount":3,"nsPopularityOrgCount":2,"dependentOnCount":0,"dependencyOfCount":1,"childCount":0,"classifiers":[],"packaging":"jar","ossIndexInfo":{"url":"https://ossindex.sonatype.org/component/pkg:maven/org.wildfly.swarm/spring@2018.4.1","vulnerabilityCount":null},"qualityScore":null,"bomDrInfo":{"url":"https://bomdoctor.sonatype.com/#/sbom/pkg:maven/org.wildfly.swarm/spring@2018.4.1"},"cherryBomUrl":null},{"id":"pkg:maven/org.wildfly.swarm/spring@2018.4.0","type":"COMPONENT_VERSION","namespace":"org.wildfly.swarm","name":"spring","version":"2018.4.0","publishedEpochMillis":1523012206000,"licenses":[],"description":"RESTful services with Spring WebMVC","categories":["Application and Server Management"],"latestVersionInfo":{"version":null,"timestampUnixWithMS":null,"licenses":null},"contributors":null,"nsPopularityAppCount":3,"nsPopularityOrgCount":2,"dependentOnCount":0,"dependencyOfCount":1,"childCount":0,"classifiers":[],"packaging":"jar","ossIndexInfo":{"url":"https://ossindex.sonatype.org/component/pkg:maven/org.wildfly.swarm/spring@2018.4.0","vulnerabilityCount":null},"qualityScore":null,"bomDrInfo":{"url":"https://bomdoctor.sonatype.com/#/sbom/pkg:maven/org.wildfly.swarm/spring@2018.4.0"},"cherryBomUrl":null},{"id":"pkg:maven/org.wildfly.swarm/spring@2018.3.3","type":"COMPONENT_VERSION","namespace":"org.wildfly.swarm","name":"spring","version":"2018.3.3","publishedEpochMillis":1520545239000,"licenses":[],"description":"RESTful services with Spring WebMVC","categories":["Application and Server Management"],"latestVersionInfo":{"version":null,"timestampUnixWithMS":null,"licenses":null},"contributors":null,"nsPopularityAppCount":3,"nsPopularityOrgCount":2,"dependentOnCount":0,"dependencyOfCount":1,"childCount":0,"classifiers":[],"packaging":"jar","ossIndexInfo":{"url":"https://ossindex.sonatype.org/component/pkg:maven/org.wildfly.swarm/spring@2018.3.3","vulnerabilityCount":null},"qualityScore":null,"bomDrInfo":{"url":"https://bomdoctor.sonatype.com/#/sbom/pkg:maven/org.wildfly.swarm/spring@2018.3.3"},"cherryBomUrl":null},{"id":"pkg:maven/org.wildfly.swarm/spring@2018.3.2","type":"COMPONENT_VERSION","namespace":"org.wildfly.swarm","name":"spring","version":"2018.3.2","publishedEpochMillis":1520442091000,"licenses":[],"description":"RESTful services with Spring WebMVC","categories":["Application and Server Management"],"latestVersionInfo":{"version":null,"timestampUnixWithMS":null,"licenses":null},"contributors":null,"nsPopularityAppCount":3,"nsPopularityOrgCount":2,"dependentOnCount":0,"dependencyOfCount":1,"childCount":0,"classifiers":[],"packaging":"jar","ossIndexInfo":{"url":"https://ossindex.sonatype.org/component/pkg:maven/org.wildfly.swarm/spring@2018.3.2","vulnerabilityCount":null},"qualityScore":null,"bomDrInfo":{"url":"https://bomdoctor.sonatype.com/#/sbom/pkg:maven/org.wildfly.swarm/spring@2018.3.2"},"cherryBomUrl":null},{"id":"pkg:maven/org.wildfly.swarm/spring@2018.3.1","type":"COMPONENT_VERSION","namespace":"org.wildfly.swarm","name":"spring","version":"2018.3.1","publishedEpochMillis":1520376347000,"licenses":[],"description":"RESTful services with Spring WebMVC","categories":["Application and Server Management"],"latestVersionInfo":{"version":null,"timestampUnixWithMS":null,"licenses":null},"contributors":null,"nsPopularityAppCount":3,"nsPopularityOrgCount":2,"dependentOnCount":0,"dependencyOfCount":1,"childCount":0,"classifiers":[],"packaging":"jar","ossIndexInfo":{"url":"https://ossindex.sonatype.org/component/pkg:maven/org.wildfly.swarm/spring@2018.3.1","vulnerabilityCount":null},"qualityScore":null,"bomDrInfo":{"url":"https://bomdoctor.sonatype.com/#/sbom/pkg:maven/org.wildfly.swarm/spring@2018.3.1"},"cherryBomUrl":null},{"id":"pkg:maven/org.wildfly.swarm/spring@2018.3.0","type":"COMPONENT_VERSION","namespace":"org.wildfly.swarm","name":"spring","version":"2018.3.0","publishedEpochMillis":1519989055000,"licenses":[],"description":"RESTful services with Spring WebMVC","categories":["Application and Server Management"],"latestVersionInfo":{"version":null,"timestampUnixWithMS":null,"licenses":null},"contributors":null,"nsPopularityAppCount":3,"nsPopularityOrgCount":2,"dependentOnCount":0,"dependencyOfCount":1,"childCount":0,"classifiers":[],"packaging":"jar","ossIndexInfo":{"url":"https://ossindex.sonatype.org/component/pkg:maven/org.wildfly.swarm/spring@2018.3.0","vulnerabilityCount":null},"qualityScore":null,"bomDrInfo":{"url":"https://bomdoctor.sonatype.com/#/sbom/pkg:maven/org.wildfly.swarm/spring@2018.3.0"},"cherryBomUrl":null},{"id":"pkg:maven/org.wildfly.swarm/spring@2018.2.0","type":"COMPONENT_VERSION","namespace":"org.wildfly.swarm","name":"spring","version":"2018.2.0","publishedEpochMillis":1518107410000,"licenses":[],"description":"RESTful services with Spring WebMVC","categories":["Application and Server Management"],"latestVersionInfo":{"version":null,"timestampUnixWithMS":null,"licenses":null},"contributors":null,"nsPopularityAppCount":3,"nsPopularityOrgCount":2,"dependentOnCount":0,"dependencyOfCount":1,"childCount":0,"classifiers":[],"packaging":"jar","ossIndexInfo":{"url":"https://ossindex.sonatype.org/component/pkg:maven/org.wildfly.swarm/spring@2018.2.0","vulnerabilityCount":null},"qualityScore":null,"bomDrInfo":{"url":"https://bomdoctor.sonatype.com/#/sbom/pkg:maven/org.wildfly.swarm/spring@2018.2.0"},"cherryBomUrl":null},{"id":"pkg:maven/org.wildfly.swarm/spring@2018.2.0.Final","type":"COMPONENT_VERSION","namespace":"org.wildfly.swarm","name":"spring","version":"2018.2.0.Final","publishedEpochMillis":1518101496000,"licenses":[],"description":"RESTful services with Spring WebMVC","categories":["Application and Server Management"],"latestVersionInfo":{"version":null,"timestampUnixWithMS":null,"licenses":null},"contributors":null,"nsPopularityAppCount":3,"nsPopularityOrgCount":2,"dependentOnCount":0,"dependencyOfCount":1,"childCount":0,"classifiers":[],"packaging":"jar","ossIndexInfo":{"url":"https://ossindex.sonatype.org/component/pkg:maven/org.wildfly.swarm/spring@2018.2.0.Final","vulnerabilityCount":null},"qualityScore":null,"bomDrInfo":{"url":"https://bomdoctor.sonatype.com/#/sbom/pkg:maven/org.wildfly.swarm/spring@2018.2.0.Final"},"cherryBomUrl":null},{"id":"pkg:maven/org.wildfly.swarm/spring@2018.1.0","type":"COMPONENT_VERSION","namespace":"org.wildfly.swarm","name":"spring","version":"2018.1.0","publishedEpochMillis":1516031754000,"licenses":[],"description":"RESTful services with Spring WebMVC","categories":["Application and Server Management"],"latestVersionInfo":{"version":null,"timestampUnixWithMS":null,"licenses":null},"contributors":null,"nsPopularityAppCount":3,"nsPopularityOrgCount":2,"dependentOnCount":0,"dependencyOfCount":1,"childCount":0,"classifiers":[],"packaging":"jar","ossIndexInfo":{"url":"https://ossindex.sonatype.org/component/pkg:maven/org.wildfly.swarm/spring@2018.1.0","vulnerabilityCount":null},"qualityScore":null,"bomDrInfo":{"url":"https://bomdoctor.sonatype.com/#/sbom/pkg:maven/org.wildfly.swarm/spring@2018.1.0"},"cherryBomUrl":null}],"page":0,"pageSize":10,"pageCount":106,"totalResultCount":1054,"totalCount":10602204}